{
    "db": {
        "url": "./db/form.db",
        "db_name": "form",
        "tbl_name": "form",
        "cmt_tbl_name": "comments",
        "primary_key": "id",
        "status_key": "stat",
        "chat_key": "chat_id",
        "username_key": "username_id",
        "cmt_key": "comment",
        "timestamp_key": "ts"
    },
    "tgbot": {
        "msg":{
            "e422": "محتوای پردازش‌نشدنی\nلطفاً دوباره تلاش کنید.",
            "e400": "درخواتس غلط\n دوباره تلاش کندی.",
            "e403": "دسترسی غیرمجاز",
            "about": "💢 *درباره ستاد*\n\nستاد _همتی برای ایران_ کارزاری آنلاین است که در چهارچوب قوانین کشور برای اثرگذاری بر انتخابات کشور فعالیت می‌کند.\n\n🔹*حوزه استفاده از محتوای به اشترک‌گذاشته‌شده*\nمحتوای گردآوری‌شده فعالیت آنلاین در این فضا آپلود می‌شود. شما می‌توانید آزادانه از این محتوا به هر نحوی که صلاح می‌دانید استفاده کنید بدون این که لازم باشد منبعی ذکر کنید. تغییر و اصلاح محتوا هم کاملاً مجاز است.\nhttps://drive.google.com/drive/folders/1x58xqslsQ9pSa6QABMK14wmULtsnh668?usp=sharing\n\n🔹*نحوه به اشتراک گذاشتن ایده‌های جدید*\nاگر محتوایی اعم از متن، تصویر، ویدوی یا هر ایده جدیدی دارید می‌توانید از طریق این ربات یا فرم زیر با ما به اشتراک بگذارید. محتوا بعد از یک بررسی حداقلی در فضای رسانه‌ای ستاد منتشر خواهد شد.\nhttps://forms.gle/8Tm1akDbBAvuoYuEA\n\n🔹*نحوه عضویت در ستاد*\nبرای عضویت در ستاد می‌توانید از طریق فرم زیر ثبت نام کنید:\nhttps://forms.gle/vjXqvmsfJ35JU7PJ9\n\n🔹*کانال تلگرامی ستاد آنلاین*\n@hemmati\\_setad",
            "start": "سلام\nبه ربات ثبت‌نام در ستاد «همتی برای ایرانیان» خوش آمدید!\nدر صورتی که نمی‌خواهید به یک سؤال پاسخ دهید در جواب تنها یک نقطه ارسال کنید. پس از پایان پاسخگویی می‌توانید پاسخ‌های خود را مشاهده و ویرایش کنید.",
            "done": "شما اطلاعات زیر را وارد کرده‌اید. با استفاده از دستور /start می‌توانید از ابتدا اطلاعاتتان را وارد کنید و اشتباهات احتمالی را اصلاح کنید.\n\n",
            "nodata": "شما اطلاعاتی وارد نکرده‌اید. با استفاده از دستور /start می‌توانید اطلاعاتتان را وارد کنید.",
            "tnx": "محتوای شما دریافت شد.\nبا استفاده از دستور /start می‌توانید اطلاعاتتان را وارد کنید.",
            "upload": "محتوای مد نظر خود را ارسال کنید تا در اختیار ستاد _همتی برای ایرانیان_ قرار گیرد.",
            "upload_inv_type": "نوع پیام ارسالی نادرست است. لطفاً فایل ارسال کنید.",
            "cmt": "نظرات، پیشنهادها و ایده‌های خود را ارسال کنید تا در اختیار ستاد _همتی برای ایرانیان_ قرار گیرد.",
            "list_sign": "♦︎ "
        }
    },
    "cols": {
        "file_addr": "cols.json",
        "keys": {
            "db_key": "db_key",
            "db_type": "db_type",
            "report_key": "report_key",
            "mask": "mask",
            "msg": "msg",
            "choices": "choices"
        }
    },
    "comments_file_addr": "cmt.xlsx",
    "report_file_addr": "report.xlsx"
}